day1/dump.vcd
$date
	Sat Jul 15 01:14:16 2023
$end
$version
	Icarus Verilog
$end
$timescale
	1s
$end
$scope module tb_day1 $end
$var wire 8 ! out [7:0] $end
$var reg 8 " a [7:0] $end
$var reg 8 # b [7:0] $end
$var reg 1 $ sel $end
$var integer 32 % i [31:0] $end
$scope module inst1 $end
$var wire 8 & a [7:0] $end
$var wire 8 ' b [7:0] $end
$var wire 1 $ sel $end
$var wire 8 ( out [7:0] $end
$upscope $end
$upscope $end
$enddefinitions $end
$comment Show the parameter values. $end
$dumpall
$end
#0
$dumpvars
b1000000 (
b1000000 '
b10010010 &
b0 %
0$
b1000000 #
b10010010 "
b1000000 !
$end
#5
b110001 !
b110001 (
1$
b10000110 #
b10000110 '
b110001 "
b110001 &
b1 %
#10
b110010 !
b110010 (
b1001 #
b1001 '
b110010 "
b110010 &
b10 %
#15
b10000110 !
b10000110 (
b10111011 #
b10111011 '
b10000110 "
b10000110 &
b11 %
#20
b11110110 !
b11110110 (
b11000110 #
b11000110 '
b11110110 "
b11110110 &
b100 %
#25
b1100010 !
b1100010 (
0$
b1100010 #
b1100010 '
b1100011 "
b1100011 &
b101 %
#30
b111011 !
b111011 (
b111011 #
b111011 '
b11110010 "
b11110010 &
b110 %
#35
b11111001 !
b11111001 (
b11111001 #
b11111001 '
b11000111 "
b11000111 &
b111 %
#40
b1110100 !
b1110100 (
1$
b1100010 #
b1100010 '
b1110100 "
b1110100 &
b1000 %
#45
b10110 !
b10110 (
0$
b10110 #
b10110 '
b1011110 "
b1011110 &
b1001 %
#50
b10000101 !
b10000101 (
b10000101 #
b10000101 '
b110001 "
b110001 &
b1010 %
#55
b11010101 !
b11010101 (
b11010101 #
b11010101 '
b10010000 "
b10010000 &
b1011 %
#60
b1001 !
b1001 (
b1001 #
b1001 '
b1001011 "
b1001011 &
b1100 %
#65
b10110101 !
b10110101 (
b10110101 #
b10110101 '
b101001 "
b101001 &
b1101 %
#70
b1 !
b1 (
1$
b1010111 #
b1010111 '
b1 "
b1 &
b1110 %
#75
b1100111 !
b1100111 (
b10010001 #
b10010001 '
b1100111 "
b1100111 &
b1111 %
#80
b1100101 !
b1100101 (
b11110 #
b11110 '
b1100101 "
b1100101 &
b10000 %
#85
b10100000 !
b10100000 (
0$
b10100000 #
b10100000 '
b11000101 "
b11000101 &
b10001 %
#90
b10111100 !
b10111100 (
1$
b1000100 #
b1000100 '
b10111100 "
b10111100 &
b10010 %
#95
b11011011 !
b11011011 (
b11100011 #
b11100011 '
b11011011 "
b11011011 &
b10011 %
#100
b10010101 !
b10010101 (
0$
b10010101 #
b10010101 '
b1011110 "
b1011110 &
b10100 %
#105
b111000 !
b111000 (
1$
b11000010 #
b11000010 '
b111000 "
b111000 &
b10101 %
#110
b10011101 !
b10011101 (
0$
b10011101 #
b10011101 '
b11101 "
b11101 &
b10110 %
#115
b10001010 !
b10001010 (
1$
b11111000 #
b11111000 '
b10001010 "
b10001010 &
b10111 %
#120
b10110001 !
b10110001 (
b10100110 #
b10100110 '
b10110001 "
b10110001 &
b11000 %
#125
b11111100 !
b11111100 (
0$
b11111100 #
b11111100 '
b11000111 "
b11000111 &
b11001 %
#130
b101110 !
b101110 (
b101110 #
b101110 '
b1001111 "
b1001111 &
b11010 %
#135
b100100 !
b100100 (
b100100 #
b100100 '
b11000100 "
b11000100 &
b11011 %
#140
b1101011 !
b1101011 (
1$
b101000 #
b101000 '
b1101011 "
b1101011 &
b11100 %
#145
b10000110 !
b10000110 (
b1100001 #
b1100001 '
b10000110 "
b10000110 &
b11101 %
#150
b111011 !
b111011 (
b10011110 #
b10011110 '
b111011 "
b111011 &
b11110 %
#155
b111111 !
b111111 (
b10110110 #
b10110110 '
b111111 "
b111111 &
b11111 %
#160
b10001111 !
b10001111 (
b1101001 #
b1101001 '
b10001111 "
b10001111 &
b100000 %
#165
b111100 !
b111100 (
b10101101 #
b10101101 '
b111100 "
b111100 &
b100001 %
#170
b11111 !
b11111 (
b10010101 #
b10010101 '
b11111 "
b11111 &
b100010 %
#175
b1000111 !
b1000111 (
0$
b1000111 #
b1000111 '
b1000011 "
b1000011 &
b100011 %
#180
b11111101 !
b11111101 (
1$
b10011 #
b10011 '
b11111101 "
b11111101 &
b100100 %
#185
b10111 !
b10111 (
0$
b10111 #
b10111 '
b1010001 "
b1010001 &
b100101 %
#190
b101111 !
b101111 (
1$
b10100010 #
b10100010 '
b101111 "
b101111 &
b100110 %
#195
b1100101 !
b1100101 (
b1110011 #
b1110011 '
b1100101 "
b1100101 &
b100111 %
#200
b1110110 !
b1110110 (
0$
b1110110 #
b1110110 '
b10010100 "
b10010100 &
b101000 %
#205
b1011010 !
b1011010 (
b1011010 #
b1011010 '
b110010 "
b110010 &
b101001 %
#210
b10100010 !
b10100010 (
b10100010 #
b10100010 '
b10111100 "
b10111100 &
b101010 %
#215
b10010101 !
b10010101 (
1$
b11010101 #
b11010101 '
b10010101 "
b10010101 &
b101011 %
#220
b1001101 !
b1001101 (
0$
b1001101 #
b1001101 '
b11101110 "
b11101110 &
b101100 %
#225
b1100001 !
b1100001 (
1$
b10101011 #
b10101011 '
b1100001 "
b1100001 &
b101101 %
#230
b110011 !
b110011 (
b101 #
b101 '
b110011 "
b110011 &
b101110 %
#235
b10111100 !
b10111100 (
0$
b10111100 #
b10111100 '
b11100 "
b11100 &
b101111 %
#240
b11001001 !
b11001001 (
b11001001 #
b11001001 '
b11001010 "
b11001010 &
b110000 %
#245
b11101101 !
b11101101 (
b11101101 #
b11101101 '
b101100 "
b101100 &
b110001 %
#250
b110110 !
b110110 (
b110110 #
b110110 '
b11101100 "
b11101100 &
b110010 %
#255
b11100101 !
b11100101 (
1$
b11011011 #
b11011011 '
b11100101 "
b11100101 &
b110011 %
#260
b100011 !
b100011 (
b10000010 #
b10000010 '
b100011 "
b100011 &
b110100 %
#265
b10110100 !
b10110100 (
b1011010 #
b1011010 '
b10110100 "
b10110100 &
b110101 %
#270
b10110 !
b10110 (
0$
b10110 #
b10110 '
b10010100 "
b10010100 &
b110110 %
#275
b10111 !
b10111 (
1$
b100 #
b100 '
b10111 "
b10111 &
b110111 %
#280
b10010100 !
b10010100 (
0$
b10010100 #
b10010100 '
b1111110 "
b1111110 &
b111000 %
#285
b1101101 !
b1101101 (
b1101101 #
b1101101 '
b11000011 "
b11000011 &
b111001 %
#290
b111000 !
b111000 (
b111000 #
b111000 '
b10110011 "
b10110011 &
b111010 %
#295
b11011101 !
b11011101 (
1$
b10101111 #
b10101111 '
b11011101 "
b11011101 &
b111011 %
#300
b1101 !
b1101 (
0$
b1101 #
b1101 '
b11101010 "
b11101010 &
b111100 %
#305
b10011011 !
b10011011 (
1$
b11001011 #
b11001011 '
b10011011 "
b10011011 &
b111101 %
#310
b10010011 !
b10010011 (
b1011011 #
b1011011 '
b10010011 "
b10010011 &
b111110 %
#315
b11101110 !
b11101110 (
b11000011 #
b11000011 '
b11101110 "
b11101110 &
b111111 %
#320
b1101101 !
b1101101 (
0$
b1101101 #
b1101101 '
b10111111 "
b10111111 &
b1000000 %
#325
b1111101 !
b1111101 (
b1111101 #
b1111101 '
b10111100 "
b10111100 &
b1000001 %
#330
b10001011 !
b10001011 (
1$
b1010000 #
b1010000 '
b10001011 "
b10001011 &
b1000010 %
#335
b11111010 !
b11111010 (
0$
b11111010 #
b11111010 '
b101000 "
b101000 &
b1000011 %
#340
b11100000 !
b11100000 (
b11100000 #
b11100000 '
b10100 "
b10100 &
b1000100 %
#345
b10100101 !
b10100101 (
b10100101 #
b10100101 '
b1001100 "
b1001100 &
b1000101 %
#350
b1110110 !
b1110110 (
1$
b1000101 #
b1000101 '
b1110110 "
b1110110 &
b1000110 %
#355
b11010100 !
b11010100 (
0$
b11010100 #
b11010100 '
b1010100 "
b1010100 &
b1000111 %
#360
b1110011 !
b1110011 (
b1110011 #
b1110011 '
b10000111 "
b10000111 &
b1001000 %
#365
b10010101 !
b10010101 (
b10010101 #
b10010101 '
b10010101 "
b10010101 &
b1001001 %
#370
b11100 !
b11100 (
b11100 #
b11100 '
b11001111 "
b11001111 &
b1001010 %
#375
b11100100 !
b11100100 (
1$
b11100101 #
b11100101 '
b11100100 "
b11100100 &
b1001011 %
#380
b10110101 !
b10110101 (
b1100011 #
b1100011 '
b10110101 "
b10110101 &
b1001100 %
#385
b11011101 !
b11011101 (
b11100010 #
b11100010 '
b11011101 "
b11011101 &
b1001101 %
#390
b11001001 !
b11001001 (
b1011010 #
b1011010 '
b11001001 "
b11001001 &
b1001110 %
#395
b11111101 !
b11111101 (
0$
b11111101 #
b11111101 '
b1000011 "
b1000011 &
b1001111 %
#400
b10011001 !
b10011001 (
1$
b1011110 #
b1011110 '
b10011001 "
b10011001 &
b1010000 %
#405
b1110010 !
b1110010 (
b11100101 #
b11100101 '
b1110010 "
b1110010 &
b1010001 %
#410
b11000111 !
b11000111 (
0$
b11000111 #
b11000111 '
b1010000 "
b1010000 &
b1010010 %
#415
b101 !
b101 (
1$
b1110111 #
b1110111 '
b101 "
b101 &
b1010011 %
#420
b111010 !
b111010 (
0$
b111010 #
b111010 '
b10011011 "
b10011011 &
b1010100 %
#425
b11000100 !
b11000100 (
b11000100 #
b11000100 '
b10110101 "
b10110101 &
b1010101 %
#430
b11001101 !
b11001101 (
1$
b11001001 #
b11001001 '
b11001101 "
b11001101 &
b1010110 %
#435
b10100101 !
b10100101 (
0$
b10100101 #
b10100101 '
b10110 "
b10110 &
b1010111 %
#440
b1111 !
b1111 (
1$
b10000110 #
b10000110 '
b1111 "
b1111 &
b1011000 %
#445
b11101000 !
b11101000 (
0$
b11101000 #
b11101000 '
b10001100 "
b10001100 &
b1011001 %
#450
b100000 !
b100000 (
1$
b11101 #
b11101 '
b100000 "
b100000 &
b1011010 %
#455
b101011 !
b101011 (
0$
b101011 #
b101011 '
b10101001 "
b10101001 &
b1011011 %
#460
b1110001 !
b1110001 (
1$
b10 #
b10 '
b1110001 "
b1110001 &
b1011100 %
#465
b10001001 !
b10001001 (
0$
b10001001 #
b10001001 '
b1101100 "
b1101100 &
b1011101 %
#470
b1110010 !
b1110010 (
b1110010 #
b1110010 '
b11100 "
b11100 &
b1011110 %
#475
b10010101 !
b10010101 (
1$
b11000000 #
b11000000 '
b10010101 "
b10010101 &
b1011111 %
#480
b11010000 !
b11010000 (
0$
b11010000 #
b11010000 '
b10010011 "
b10010011 &
b1100000 %
#485
b10101100 !
b10101100 (
b10101100 #
b10101100 '
b10 "
b10 &
b1100001 %
#490
b1001 !
b1001 (
b1001 #
b1001 '
b10001010 "
b10001010 &
b1100010 %
#495
b10101010 !
b10101010 (
b10101010 #
b10101010 '
b1011000 "
b1011000 &
b1100011 %
#500
b1100100 %
